{
    "type": "application",
    "source-directories": [
        "src"
    ],
    "elm-version": "0.19.0",
    "dependencies": {
        "direct": {
            "elm/browser": "1.0.1",
            "elm/core": "1.0.2",
            "elm/html": "1.0.0",
            "elm/json": "1.1.3",
            "elm/svg": "1.0.1",
            "elm-community/basics-extra": "4.0.0",
            "elm-community/intdict": "3.0.0",
            "elm-community/list-extra": "8.2.2",
            "elm-community/maybe-extra": "5.0.0",
            "elm-community/result-extra": "2.2.1",
            "elm-explorations/linear-algebra": "1.0.3",
            "ianmackenzie/elm-geometry": "1.2.1",
            "ianmackenzie/elm-geometry-linear-algebra-interop": "1.0.2",
            "ianmackenzie/elm-geometry-svg": "1.0.2"
        },
        "indirect": {
            "elm/time": "1.0.0",
            "elm/url": "1.0.0",
            "elm/virtual-dom": "1.0.2",
            "ianmackenzie/elm-float-extra": "1.1.0",
            "ianmackenzie/elm-interval": "1.0.1",
            "ianmackenzie/elm-triangular-mesh": "1.0.2"
        }
    },
    "test-dependencies": {
        "direct": {},
        "indirect": {}
    }
}